src/inversek2j.cpp src/kinematics.cpp
obj/inversek2j.o obj/kinematics.o
if [ ! -d "./bin" ];then 	\
		mkdir bin;				\
	fi
if [ ! -d "./obj" ];then 	\
		mkdir obj;				\
	fi
g++ obj/inversek2j.o obj/kinematics.o -L/home/yazdan/phd/benchmarks/npu.bench/anpu.compiler/lib -L/filespace/people/y/yazdanbakhsh/FANN/bin/lib -L/home/yazdan/phd/projects/parrot.cpu/parrot.c/src/ParrotLib -lfann -lbackprop -lboost_regex -lParrot -o bin/inversek2j.out
